# Blender 4.0.2
# www.blender.org
o Cylinder.001
v -0.001305 0.457544 0.038988
v -0.001305 0.486084 0.038988
v -0.028839 0.457544 0.027583
v -0.028839 0.486084 0.027583
v -0.040244 0.457544 0.000049
v -0.040244 0.486084 0.000049
v -0.028839 0.457544 -0.027485
v -0.028839 0.486084 -0.027485
v -0.001305 0.457544 -0.038890
v -0.001305 0.486084 -0.038890
v 0.026230 0.457544 -0.027485
v 0.026230 0.486084 -0.027485
v 0.037635 0.457544 0.000049
v 0.037635 0.486084 0.000049
v 0.026230 0.457544 0.027583
v 0.026230 0.486084 0.027583
v -0.001305 0.507324 0.038988
v -0.415275 -0.087287 0.172484
v -0.388763 -0.238927 0.161482
v -0.028839 0.507324 0.027583
v -0.349850 -0.387119 0.145335
v -0.297483 -0.517009 0.123605
v -0.233673 -0.636269 0.097126
v -0.040244 0.507324 0.000049
v -0.081881 -0.751596 0.034138
v -0.028839 0.507324 -0.027485
v -0.144732 -0.702819 0.097070
v -0.001305 0.507324 -0.038890
v -0.321195 0.076520 0.321513
v 0.026230 0.507324 -0.027485
v -0.302543 0.163474 0.302862
v -0.272255 0.243611 0.272573
v -0.231494 0.313852 0.231812
v -0.181826 0.371497 0.182144
v 0.037635 0.507324 0.000049
v -0.125160 0.414332 0.125478
v -0.063674 0.440709 0.063992
v 0.026230 0.507324 0.027583
v -0.001305 0.534271 0.038988
v -0.028839 0.534271 0.027583
v -0.317656 -0.087287 0.318380
v -0.297372 -0.238927 0.298070
v -0.267601 -0.387118 0.268261
v -0.227536 -0.517009 0.228144
v -0.040244 0.534271 0.000049
v -0.178716 -0.636269 0.179262
v -0.062583 -0.751596 0.062981
v -0.028839 0.534271 -0.027485
v -0.096567 -0.702819 0.145174
v -0.001305 0.534271 -0.038890
v 0.026230 0.534271 -0.027485
v -0.173706 0.076520 0.420062
v -0.163612 0.163474 0.395693
v -0.147220 0.243611 0.356119
v 0.037635 0.534271 0.000049
v -0.125160 0.313852 0.302861
v -0.098280 0.371497 0.237967
v -0.067613 0.414332 0.163930
v -0.034337 0.440709 0.083595
v 0.026230 0.534271 0.027583
v -0.171636 -0.087287 0.415813
v -0.160668 -0.238927 0.389287
v -0.144571 -0.387118 0.350353
v -0.122907 -0.517009 0.297959
v -0.096510 -0.636269 0.234115
v -0.033716 -0.751596 0.082243
v 0.000269 0.076520 0.454668
v 0.000269 0.163474 0.428291
v 0.000269 0.313852 0.327811
v 0.000269 0.371497 0.257570
v 0.000269 0.414332 0.177432
v 0.000269 0.440709 0.090478
v -0.395375 0.163474 0.163930
v -0.419744 0.076520 0.174024
v -0.170823 -0.702819 0.034195
v -0.355801 0.243611 0.147538
v -0.302543 0.313852 0.125478
v -0.237649 0.371497 0.098598
v -0.163612 0.414332 0.067931
v -0.083277 0.440709 0.034655
v -0.449631 -0.087288 0.000336
v -0.420927 -0.238927 0.000318
v -0.378797 -0.387119 0.000291
v -0.322101 -0.517009 0.000255
v -0.253015 -0.636269 0.000211
v -0.088673 -0.751596 0.000106
v -0.427973 0.163474 0.000049
v -0.454350 0.076520 0.000049
v -0.170866 -0.702819 -0.033878
v -0.385138 0.243611 0.000049
v -0.327493 0.313852 0.000049
v -0.257252 0.371497 0.000049
v -0.177114 0.414332 0.000049
v -0.090160 0.440709 0.000049
v -0.415495 -0.087288 -0.171855
v -0.388968 -0.238927 -0.160887
v -0.350035 -0.387119 -0.144790
v -0.297641 -0.517009 -0.123126
v -0.233797 -0.636269 -0.096729
v -0.081924 -0.751596 -0.033934
v -0.395375 0.163473 -0.163832
v -0.419744 0.076519 -0.173926
v -0.144856 -0.702819 -0.096785
v -0.355801 0.243611 -0.147440
v -0.302543 0.313852 -0.125380
v -0.237649 0.371497 -0.098500
v -0.163612 0.414332 -0.067833
v -0.083277 0.440709 -0.034557
v -0.318061 -0.087288 -0.317875
v -0.297751 -0.238927 -0.297591
v -0.267942 -0.387119 -0.267820
v -0.227826 -0.517010 -0.227755
v -0.178944 -0.636269 -0.178935
v -0.062663 -0.751596 -0.062801
v -0.302543 0.163473 -0.302763
v -0.321195 0.076519 -0.321415
v -0.096752 -0.702819 -0.144951
v -0.272255 0.243611 -0.272475
v -0.231494 0.313852 -0.231713
v -0.181826 0.371497 -0.182046
v -0.125160 0.414332 -0.125380
v -0.063674 0.440709 -0.063894
v -0.172166 -0.087288 -0.415494
v -0.161164 -0.238927 -0.388982
v -0.145017 -0.387119 -0.350069
v -0.123287 -0.517010 -0.297702
v -0.096808 -0.636269 -0.233892
v -0.033820 -0.751596 -0.082100
v -0.034703 0.440709 -0.083056
v -0.163612 0.163473 -0.395594
v -0.173706 0.076519 -0.419963
v -0.033877 -0.702819 -0.171041
v -0.147220 0.243611 -0.356020
v -0.125160 0.313852 -0.302763
v -0.098280 0.371497 -0.237869
v -0.067613 0.414332 -0.163832
v -0.000018 -0.087288 -0.449851
v 0.000000 -0.238927 -0.421146
v 0.000027 -0.387119 -0.379016
v 0.000063 -0.517010 -0.322320
v 0.000107 -0.636269 -0.253234
v 0.000212 -0.751596 -0.088892
v -0.000125 0.440709 -0.090079
v 0.000269 0.163473 -0.428192
v 0.000269 0.076519 -0.454569
v 0.034196 -0.702819 -0.171085
v 0.000269 0.243611 -0.385358
v 0.000269 0.313852 -0.327712
v 0.000269 0.371497 -0.257471
v 0.000269 0.414332 -0.177334
v 0.172173 -0.087288 -0.415714
v 0.161205 -0.238927 -0.389187
v 0.145108 -0.387119 -0.350254
v 0.123444 -0.517010 -0.297859
v 0.097047 -0.636269 -0.234016
v 0.034252 -0.751596 -0.082143
v 0.034508 0.440709 -0.083335
v 0.164149 0.163473 -0.395594
v 0.174244 0.076519 -0.419963
v 0.097104 -0.702819 -0.145074
v 0.147758 0.243611 -0.356020
v 0.125698 0.313852 -0.302763
v 0.098818 0.371497 -0.237869
v 0.068150 0.414332 -0.163832
v 0.318193 -0.087288 -0.318281
v 0.297909 -0.238927 -0.297971
v 0.268138 -0.387119 -0.268161
v 0.228073 -0.517010 -0.228045
v 0.179253 -0.636269 -0.179163
v 0.063119 -0.751596 -0.062881
v 0.063924 0.440709 -0.063851
v 0.303081 0.163473 -0.302763
v 0.321732 0.076519 -0.321415
v 0.145269 -0.702819 -0.096970
v 0.272792 0.243611 -0.272475
v 0.232031 0.313852 -0.231713
v 0.182363 0.371497 -0.182045
v 0.125698 0.414332 -0.125380
v 0.415812 -0.087288 -0.172385
v 0.389300 -0.238927 -0.161383
v 0.350388 -0.387119 -0.145236
v 0.298020 -0.517010 -0.123506
v 0.234210 -0.636269 -0.097027
v 0.082418 -0.751596 -0.034039
v 0.395912 0.163473 -0.163832
v 0.420281 0.076519 -0.173926
v 0.171359 -0.702819 -0.034096
v 0.356338 0.243611 -0.147440
v 0.303081 0.313852 -0.125380
v 0.238187 0.371497 -0.098500
v 0.164150 0.414332 -0.067833
v 0.083814 0.440709 -0.034557
v 0.450169 -0.087288 -0.000237
v 0.421464 -0.238927 -0.000219
v 0.379335 -0.387119 -0.000192
v 0.322638 -0.517010 -0.000156
v 0.253552 -0.636269 -0.000112
v 0.089210 -0.751596 -0.000007
v 0.428510 0.163473 0.000049
v 0.454887 0.076519 0.000049
v 0.171403 -0.702819 0.033977
v 0.385675 0.243611 0.000049
v 0.328030 0.313852 0.000049
v 0.257789 0.371497 0.000049
v 0.177652 0.414332 0.000049
v 0.090698 0.440709 0.000049
v 0.416032 -0.087288 0.171954
v 0.389505 -0.238927 0.160986
v 0.350572 -0.387119 0.144889
v 0.298177 -0.517009 0.123225
v 0.234334 -0.636269 0.096828
v 0.082461 -0.751596 0.034034
v 0.395912 0.163473 0.163930
v 0.420281 0.076519 0.174024
v 0.145392 -0.702819 0.096885
v 0.356338 0.243611 0.147538
v 0.303081 0.313852 0.125478
v 0.238187 0.371497 0.098598
v 0.164150 0.414332 0.067931
v 0.083814 0.440709 0.034655
v 0.318599 -0.087288 0.317974
v 0.298289 -0.238927 0.297690
v 0.268480 -0.387119 0.267919
v 0.228363 -0.517009 0.227854
v 0.179481 -0.636269 0.179034
v 0.063200 -0.751596 0.062901
v 0.303081 0.163474 0.302862
v 0.321732 0.076520 0.321513
v 0.097288 -0.702819 0.145050
v 0.272792 0.243611 0.272573
v 0.232031 0.313852 0.231812
v 0.182363 0.371497 0.182144
v 0.125698 0.414332 0.125478
v 0.064212 0.440709 0.063992
v 0.172703 -0.087288 0.415593
v 0.161701 -0.238927 0.389081
v 0.145554 -0.387119 0.350168
v 0.123824 -0.517009 0.297801
v 0.097345 -0.636269 0.233992
v 0.034357 -0.751596 0.082199
v 0.164149 0.163474 0.395692
v 0.174243 0.076520 0.420062
v 0.034414 -0.702819 0.171141
v 0.147757 0.243611 0.356119
v 0.125698 0.313852 0.302861
v 0.098817 0.371497 0.237967
v 0.068150 0.414332 0.163930
v 0.034875 0.440709 0.083595
v 0.000555 -0.087287 0.449950
v 0.000537 -0.238927 0.421245
v 0.000510 -0.387118 0.379116
v 0.000474 -0.517009 0.322419
v 0.000430 -0.636269 0.253333
v 0.000325 -0.751596 0.088991
v -0.033659 -0.702819 0.171184
v 0.000269 0.243611 0.385456
v -0.209470 -0.669544 0.041908
v -0.265578 -0.570309 0.110366
v -0.369307 -0.313023 0.153409
v -0.177486 -0.669544 0.118985
v -0.323667 -0.452064 0.134470
v -0.247568 -0.452064 0.248202
v -0.203126 -0.570309 0.203703
v -0.400744 -0.158528 0.166454
v -0.165624 -0.158528 0.401274
v -0.152619 -0.313023 0.369820
v -0.133739 -0.452064 0.324156
v -0.109709 -0.570309 0.266037
v -0.306538 -0.158528 0.307248
v -0.118441 -0.669544 0.177956
v -0.282486 -0.313023 0.283165
v -0.350449 -0.452064 0.000273
v -0.399862 -0.313023 0.000304
v -0.287558 -0.570309 0.000233
v -0.433899 -0.158528 0.000326
v -0.209523 -0.669544 -0.041542
v -0.323838 -0.452064 -0.133958
v -0.369502 -0.313023 -0.152838
v -0.265719 -0.570309 -0.109927
v -0.400956 -0.158528 -0.165844
v -0.177637 -0.669544 -0.118659
v -0.247884 -0.452064 -0.247787
v -0.282847 -0.313023 -0.282706
v -0.203385 -0.570309 -0.203345
v -0.306930 -0.158528 -0.306758
v -0.118667 -0.669544 -0.177705
v -0.134152 -0.452064 -0.323886
v -0.153090 -0.313023 -0.369526
v -0.110047 -0.570309 -0.265797
v -0.166136 -0.158528 -0.400963
v -0.041590 -0.669544 -0.209689
v 0.000045 -0.452064 -0.350668
v 0.000014 -0.313023 -0.400081
v 0.000085 -0.570309 -0.287777
v -0.000008 -0.158529 -0.434118
v 0.041860 -0.669544 -0.209742
v 0.134276 -0.452064 -0.324057
v 0.153157 -0.313023 -0.369721
v 0.110245 -0.570309 -0.265938
v 0.166162 -0.158529 -0.401175
v 0.118977 -0.669544 -0.177856
v 0.248105 -0.452064 -0.248103
v 0.283024 -0.313023 -0.283066
v 0.203663 -0.570309 -0.203604
v 0.307076 -0.158529 -0.307149
v 0.178023 -0.669544 -0.118886
v 0.324204 -0.452064 -0.134371
v 0.369844 -0.313023 -0.153310
v 0.266115 -0.570309 -0.110266
v 0.401281 -0.158529 -0.166355
v 0.210007 -0.669544 -0.041809
v 0.350986 -0.452064 -0.000174
v 0.400399 -0.313023 -0.000205
v 0.288095 -0.570309 -0.000134
v 0.434436 -0.158529 -0.000227
v 0.210060 -0.669544 0.041641
v 0.324375 -0.452064 0.134057
v 0.370039 -0.313023 0.152937
v 0.266256 -0.570309 0.110027
v 0.401493 -0.158528 0.165942
v 0.178174 -0.669544 0.118759
v 0.248421 -0.452064 0.247886
v 0.283384 -0.313023 0.282804
v 0.203922 -0.570309 0.203444
v 0.307467 -0.158528 0.306856
v 0.119204 -0.669544 0.177804
v 0.134689 -0.452064 0.323985
v 0.153628 -0.313023 0.369625
v 0.110584 -0.570309 0.265897
v 0.166673 -0.158528 0.401062
v 0.042127 -0.669544 0.209788
v 0.000492 -0.452064 0.350767
v 0.000523 -0.313023 0.400180
v 0.000452 -0.570309 0.287876
v 0.000545 -0.158528 0.434217
v -0.041323 -0.669544 0.209841
v -0.369137 0.124141 0.246878
v -0.246560 0.124142 0.369455
v -0.086406 0.124142 0.435793
v -0.410193 0.124141 0.170068
v -0.435475 0.124141 0.086724
v -0.435475 0.124141 -0.086626
v -0.410193 0.124141 -0.169970
v -0.369137 0.124141 -0.246780
v -0.246560 0.124141 -0.369356
v -0.086406 0.124141 -0.435695
v 0.086944 0.124141 -0.435695
v 0.247098 0.124141 -0.369356
v 0.369674 0.124141 -0.246780
v 0.436012 0.124141 -0.086625
v 0.436012 0.124141 0.086724
v 0.369674 0.124141 0.246878
v 0.247098 0.124141 0.369455
v 0.086943 0.124141 0.435793
v -0.341627 0.203769 0.228496
v -0.228178 0.203769 0.341945
v -0.079951 0.203769 0.403343
v -0.403025 0.203769 0.080269
v -0.403025 0.203769 -0.080171
v -0.341627 0.203769 -0.228398
v -0.228178 0.203769 -0.341846
v -0.079951 0.203769 -0.403244
v 0.080489 0.203769 -0.403244
v 0.228716 0.203769 -0.341846
v 0.342164 0.203769 -0.228398
v 0.403562 0.203769 -0.080171
v 0.403562 0.203769 0.080269
v 0.342164 0.203769 0.228496
v 0.228716 0.203769 0.341945
v 0.080489 0.203769 0.403342
v -0.203244 0.282075 0.304628
v -0.071196 0.282075 0.359325
v -0.304310 0.282075 0.203562
v -0.359007 0.282075 0.071513
v -0.359007 0.282075 -0.071415
v -0.304310 0.282075 -0.203464
v -0.203244 0.282075 -0.304530
v -0.071196 0.282074 -0.359226
v 0.203782 0.282074 -0.304530
v 0.304848 0.282074 -0.203464
v 0.359544 0.282074 -0.071415
v 0.359544 0.282075 0.071514
v 0.304848 0.282075 0.203562
v 0.203782 0.282075 0.304628
v 0.071733 0.282075 0.359325
v -0.167444 0.343158 0.251049
v -0.058624 0.343158 0.296124
v -0.250731 0.343158 0.167762
v -0.295806 0.343158 0.058942
v -0.295806 0.343158 -0.058844
v -0.250731 0.343158 -0.167664
v -0.167444 0.343157 -0.250951
v -0.058624 0.343157 -0.296026
v 0.059162 0.343157 -0.296026
v 0.167982 0.343157 -0.250951
v 0.251269 0.343157 -0.167664
v 0.296344 0.343157 -0.058844
v 0.296344 0.343158 0.058942
v 0.251269 0.343158 0.167762
v 0.167982 0.343158 0.251050
v 0.059162 0.343158 0.296124
v -0.379333 -0.046879 0.254042
v -0.253239 -0.046879 0.379975
v -0.447637 -0.046879 0.089440
v -0.447750 -0.046879 -0.088770
v -0.379657 -0.046879 -0.253459
v -0.253723 -0.046879 -0.379553
v -0.089122 -0.046879 -0.447856
v 0.089089 -0.046879 -0.447969
v 0.253777 -0.046879 -0.379876
v 0.379871 -0.046879 -0.253942
v 0.448174 -0.046879 -0.089341
v 0.448287 -0.046879 0.088869
v 0.380194 -0.046879 0.253557
v 0.254260 -0.046879 0.379651
v 0.089659 -0.046879 0.447954
v -0.088551 -0.046879 0.448067
v -0.365715 -0.122088 0.244929
v -0.244145 -0.122088 0.366345
v -0.085365 -0.122088 0.431995
v -0.431567 -0.122088 0.086233
v -0.431677 -0.122088 -0.085584
v -0.366027 -0.122088 -0.244364
v -0.244611 -0.122088 -0.365934
v -0.085915 -0.122088 -0.431786
v 0.085902 -0.122088 -0.431896
v 0.244682 -0.122088 -0.366246
v 0.366252 -0.122088 -0.244830
v 0.432105 -0.122088 -0.086134
v 0.432214 -0.122088 0.085683
v 0.366564 -0.122088 0.244463
v 0.245148 -0.122088 0.366033
v 0.086452 -0.122088 0.431885
v -0.355446 -0.198824 0.238058
v -0.237287 -0.198823 0.356067
v -0.419450 -0.198824 0.083815
v -0.419557 -0.198824 -0.083181
v -0.355749 -0.198824 -0.237506
v -0.237740 -0.198824 -0.355665
v -0.083497 -0.198824 -0.419669
v 0.083499 -0.198824 -0.419776
v 0.237824 -0.198824 -0.355968
v 0.355983 -0.198824 -0.237959
v 0.419987 -0.198824 -0.083716
v 0.420094 -0.198824 0.083280
v 0.356286 -0.198824 0.237604
v 0.238277 -0.198824 0.355764
v 0.084034 -0.198824 0.419768
v -0.082962 -0.198824 0.419875
v -0.339298 -0.277391 0.227254
v -0.226503 -0.277390 0.339905
v -0.400397 -0.277391 0.080012
v -0.400499 -0.277391 -0.079403
v -0.339587 -0.277391 -0.226722
v -0.226936 -0.277391 -0.339517
v -0.079694 -0.277391 -0.400616
v 0.079721 -0.277391 -0.400718
v 0.227040 -0.277391 -0.339806
v 0.339835 -0.277391 -0.227155
v 0.400934 -0.277391 -0.079913
v 0.401036 -0.277391 0.079502
v 0.340124 -0.277391 0.226821
v 0.227473 -0.277391 0.339616
v 0.080231 -0.277391 0.400715
v -0.079183 -0.277391 0.400816
v -0.320657 -0.353318 0.214781
v -0.378402 -0.353318 0.075623
v -0.214054 -0.353318 0.321249
v -0.378499 -0.353318 -0.075041
v -0.320931 -0.353318 -0.214273
v -0.214463 -0.353318 -0.320876
v -0.075305 -0.353318 -0.378621
v 0.075359 -0.353319 -0.378718
v 0.214591 -0.353319 -0.321149
v 0.321194 -0.353319 -0.214682
v 0.378939 -0.353318 -0.075524
v 0.379035 -0.353318 0.075140
v 0.321468 -0.353318 0.214372
v 0.215000 -0.353318 0.320975
v 0.075842 -0.353318 0.378720
v -0.074822 -0.353318 0.378816
v -0.299441 -0.421919 0.200586
v -0.199885 -0.421919 0.300014
v -0.353369 -0.421919 0.070627
v -0.353459 -0.421919 -0.070077
v -0.299696 -0.421919 -0.200104
v -0.200267 -0.421919 -0.299660
v -0.070309 -0.421919 -0.353588
v 0.070395 -0.421919 -0.353677
v 0.200422 -0.421919 -0.299915
v 0.299978 -0.421919 -0.200486
v 0.353906 -0.421919 -0.070528
v 0.353996 -0.421919 0.070176
v 0.300233 -0.421919 0.200203
v 0.200804 -0.421919 0.299759
v 0.070846 -0.421919 0.353687
v -0.069858 -0.421919 0.353777
v -0.278775 -0.486865 0.186758
v -0.328984 -0.486865 0.065760
v -0.186084 -0.486864 0.279331
v -0.329068 -0.486865 -0.065241
v -0.279013 -0.486865 -0.186303
v -0.186440 -0.486865 -0.278994
v -0.065442 -0.486865 -0.329203
v 0.065559 -0.486865 -0.329287
v 0.186621 -0.486865 -0.279232
v 0.279312 -0.486865 -0.186659
v 0.329521 -0.486865 -0.065661
v 0.329605 -0.486865 0.065341
v 0.279550 -0.486865 0.186402
v 0.186977 -0.486865 0.279093
v 0.065979 -0.486865 0.329302
v -0.065023 -0.486865 0.329386
v -0.253180 -0.546315 0.169632
v -0.168991 -0.546315 0.253714
v -0.298784 -0.546315 0.059733
v -0.298859 -0.546315 -0.059253
v -0.253396 -0.546315 -0.169210
v -0.169314 -0.546315 -0.253399
v -0.059415 -0.546315 -0.299003
v 0.059571 -0.546315 -0.299079
v 0.169528 -0.546315 -0.253615
v 0.253717 -0.546315 -0.169533
v 0.299321 -0.546315 -0.059634
v 0.299397 -0.546315 0.059352
v 0.253933 -0.546315 0.169309
v 0.169851 -0.546315 0.253498
v 0.059952 -0.546315 0.299102
v -0.059034 -0.546315 0.299178
v -0.223271 -0.605447 0.149620
v -0.149017 -0.605447 0.223779
v -0.263493 -0.605447 0.052690
v -0.263560 -0.605447 -0.052254
v -0.223461 -0.605447 -0.149236
v -0.149302 -0.605447 -0.223490
v -0.052372 -0.605447 -0.263712
v 0.052572 -0.605447 -0.263779
v 0.149554 -0.605447 -0.223680
v 0.223808 -0.605447 -0.149521
v 0.264030 -0.605447 -0.052591
v 0.264097 -0.605447 0.052354
v 0.223998 -0.605447 0.149335
v 0.149839 -0.605447 0.223589
v 0.052909 -0.605447 0.263811
v -0.052036 -0.605447 0.263878
v 0.081276 0.608237 0.036278
v -0.115668 0.645993 0.033087
v 0.072838 0.573944 0.023111
v -0.123724 0.612969 0.014019
v 0.070896 0.559728 -0.008466
v -0.123888 0.605206 -0.019481
v 0.076587 0.573913 -0.039955
v -0.116065 0.627252 -0.047789
v 0.086579 0.608194 -0.052910
v -0.104837 0.666193 -0.054323
v 0.095017 0.642483 -0.039743
v -0.096782 0.699216 -0.035256
v 0.096959 0.656701 -0.008167
v -0.096618 0.706979 -0.001756
v 0.091267 0.642514 0.023322
v -0.104441 0.684933 0.026552
v 0.235554 0.546357 0.030589
v 0.232161 0.526839 0.002152
v 0.235935 0.533671 -0.031303
v 0.244667 0.562855 -0.050178
v 0.253241 0.597290 -0.043416
v 0.256635 0.616809 -0.014980
v 0.252860 0.609975 0.018475
v 0.244129 0.580795 0.037350
v 0.399343 0.539258 0.040048
v -0.426747 0.741371 0.030254
v 0.392384 0.508530 0.026898
v -0.437963 0.700314 0.017055
v 0.391055 0.495794 -0.004671
v -0.441056 0.683294 -0.014535
v 0.396133 0.508499 -0.036167
v -0.434214 0.700283 -0.046011
v 0.404645 0.539214 -0.049140
v -0.421444 0.741327 -0.058934
v 0.411603 0.569935 -0.035990
v -0.410227 0.782385 -0.045735
v 0.412933 0.582678 -0.004421
v -0.407134 0.799404 -0.014145
v 0.407853 0.569966 0.027075
v -0.413977 0.782415 0.017331
v 0.552793 0.510957 0.041866
v -0.544818 0.784934 0.040464
v 0.546502 0.481820 0.028724
v -0.580800 0.741397 0.023572
v 0.545451 0.469746 -0.002842
v -0.592171 0.722483 -0.016327
v 0.550251 0.481790 -0.034341
v -0.576075 0.741358 -0.055904
v 0.558096 0.510913 -0.047322
v -0.538136 0.784879 -0.071930
v 0.564385 0.540042 -0.034180
v -0.502155 0.828417 -0.055037
v 0.565438 0.552126 -0.002614
v -0.489208 0.846467 -0.015120
v 0.560635 0.540072 0.028886
v -0.506880 0.828456 0.024438
v -0.486131 0.764803 0.033846
v -0.507902 0.724293 0.019584
v -0.515287 0.707123 -0.014551
v -0.503961 0.723351 -0.048561
v -0.480558 0.763471 -0.062526
v -0.458787 0.803982 -0.048263
v -0.451402 0.821152 -0.014129
v -0.462728 0.804924 0.019882
v -0.271901 0.698159 0.032091
v -0.282201 0.659344 0.018902
v -0.284913 0.643254 -0.012684
v -0.278451 0.659314 -0.044164
v -0.266599 0.698116 -0.057098
v -0.256299 0.736930 -0.043909
v -0.253587 0.753020 -0.012324
v -0.260049 0.736961 0.019156
v -0.361713 0.672959 -0.037428
v -0.360520 0.688098 0.024475
v -0.366335 0.664942 -0.003980
v -0.349362 0.707452 -0.056276
v -0.336517 0.748215 -0.049482
v -0.330702 0.771371 -0.021027
v -0.335324 0.763354 0.012421
v -0.347675 0.728862 0.031269
v -0.189118 0.716529 0.017432
v -0.200324 0.679842 0.029661
v -0.210062 0.643142 0.017191
v -0.212627 0.627928 -0.012674
v -0.206517 0.643113 -0.042439
v -0.195310 0.679801 -0.054668
v -0.185572 0.716500 -0.042198
v -0.183007 0.731714 -0.012333
v -0.019328 0.634135 0.031208
v -0.028170 0.599720 0.018848
v -0.030375 0.585454 -0.010774
v -0.024653 0.599691 -0.040304
v -0.014354 0.634094 -0.052445
v -0.005512 0.668506 -0.040084
v -0.003307 0.682773 -0.010463
v -0.009029 0.668535 0.019068
v 0.149469 0.566505 0.030589
v 0.146075 0.546987 0.002152
v 0.149849 0.553819 -0.031303
v 0.158582 0.583003 -0.050178
v 0.167155 0.617437 -0.043416
v 0.170549 0.636957 -0.014980
v 0.166775 0.630123 0.018475
v 0.158043 0.600943 0.037350
v 0.317004 0.557577 0.038647
v 0.310215 0.527826 0.025910
v 0.308909 0.515492 -0.004667
v 0.313847 0.527790 -0.035174
v 0.322140 0.557527 -0.047739
v 0.328927 0.587272 -0.035002
v 0.330235 0.599612 -0.004425
v 0.325295 0.587308 0.026082
v 0.468927 0.504550 0.034287
v 0.466366 0.487024 0.005860
v 0.469848 0.493155 -0.027598
v 0.477336 0.519362 -0.046487
v 0.484441 0.550282 -0.039743
v 0.487004 0.567813 -0.011316
v 0.483521 0.561676 0.022142
v 0.476034 0.535476 0.041032
